{
  "project_info": {
    "project_number": "11351288496",
    "project_id": "defi11demo",
    "storage_bucket": "defi11demo.appspot.com"
  },
  "client": [
    {
      "client_info": {
        "mobilesdk_app_id": "1:11351288496:android:0602866cef7873f166e975",
        "android_client_info": {
          "package_name": "com.defi11.demo"
        }
      },
      "oauth_client": [
        {
          "client_id": "11351288496-md1nuq27e5h40o29pp8tc0l97aqafpcu.apps.googleusercontent.com",
          "client_type": 3
        }
      ],
      "api_key": [
        {
          "current_key": "AIzaSyDs_kXaj0efoG4oipVa0dI3hOs8IuDOGkI"
        }
      ],
      "services": {
        "appinvite_service": {
          "other_platform_oauth_client": [
            {
              "client_id": "11351288496-md1nuq27e5h40o29pp8tc0l97aqafpcu.apps.googleusercontent.com",
              "client_type": 3
            }
          ]
        }
      }
    }
  ],
  "configuration_version": "1"
}